{
  "graph:open-local": [
    {
      "modifiers": [
        "Mod",
        "Shift"
      ],
      "key": "G"
    }
  ],
  "editor:swap-line-up": [
    {
      "modifiers": [
        "Alt"
      ],
      "key": "ArrowUp"
    }
  ],
  "app:open-settings": [
    {
      "modifiers": [
        "Mod",
        "Shift"
      ],
      "key": ","
    }
  ],
  "editor:focus": [
    {
      "modifiers": [
        "Mod"
      ],
      "key": "R"
    }
  ],
  "editor:toggle-checklist-status": [],
  "hotkeysplus-obsidian:duplicate-lines": [
    {
      "modifiers": [
        "Alt",
        "Shift"
      ],
      "key": "ArrowDown"
    }
  ],
  "hotkeysplus-obsidian:insert-line-above": [
    {
      "modifiers": [
        "Mod",
        "Shift"
      ],
      "key": "Enter"
    }
  ],
  "hotkeysplus-obsidian:insert-line-below": [
    {
      "modifiers": [
        "Mod"
      ],
      "key": "Enter"
    }
  ],
  "editor:swap-line-down": [
    {
      "modifiers": [
        "Alt"
      ],
      "key": "ArrowDown"
    }
  ],
  "app:go-forward": [
    {
      "modifiers": [
        "Alt"
      ],
      "key": "ArrowRight"
    }
  ],
  "app:go-back": [
    {
      "modifiers": [
        "Alt"
      ],
      "key": "ArrowLeft"
    }
  ],
  "app:toggle-right-sidebar": [],
  "obsidian-mind-map:app:markmap-preview": [
    {
      "modifiers": [
        "Alt"
      ],
      "key": "M"
    }
  ],
  "app:reload": [
    {
      "modifiers": [
        "Mod",
        "Shift"
      ],
      "key": "R"
    }
  ],
  "command-palette:open": [
    {
      "modifiers": [
        "Mod",
        "Shift"
      ],
      "key": "P"
    }
  ],
  "macro-plugin:toggle- bar": [
    {
      "modifiers": [
        "Mod",
        "Shift"
      ],
      "key": "B"
    }
  ],
  "macro-plugin:macro-plugin:toggle- bar": [
    {
      "modifiers": [
        "Mod",
        "Shift"
      ],
      "key": "B"
    }
  ],
  "app:toggle-left-sidebar": [
    {
      "modifiers": [
        "Mod",
        "Shift"
      ],
      "key": "B"
    }
  ],
  "editor:toggle-highlight": [
    {
      "modifiers": [
        "Mod"
      ],
      "key": "L"
    }
  ],
  "obsidian-hotkeys-for-templates:Highlight.md": [
    {
      "modifiers": [
        "Alt"
      ],
      "key": "L"
    }
  ],
  "obsidian-hotkeys-for-templates:templater:Highlight.md": [
    {
      "modifiers": [
        "Alt"
      ],
      "key": "L"
    }
  ],
  "obsidian-hotkeys-for-templates:templater:ColorString.md": [
    {
      "modifiers": [
        "Alt"
      ],
      "key": "S"
    }
  ],
  "advanced-cursors:copy-line-down": [],
  "advanced-cursors:write-incrementing-i": [],
  "advanced-cursors:open-regex-match-modal": [],
  "editor:delete-paragraph": [
    {
      "modifiers": [
        "Mod",
        "Shift"
      ],
      "key": "K"
    }
  ],
  "obsidian-excalidraw-plugin:insert-link": [
    {
      "modifiers": [
        "Mod",
        "Shift"
      ],
      "key": "L"
    }
  ],
  "file-explorer:open": [
    {
      "modifiers": [
        "Mod",
        "Shift"
      ],
      "key": "E"
    }
  ],
  "obsidian-excalidraw-plugin:toggle-lock": [],
  "obsidian-tweaks:copy-line-up": [
    {
      "modifiers": [
        "Alt",
        "Shift"
      ],
      "key": "ArrowUp"
    }
  ],
  "hotkeysplus-obsidian:duplicate-lines-up": [
    {
      "modifiers": [
        "Alt",
        "Shift"
      ],
      "key": "ArrowUp"
    }
  ],
  "hotkeysplus-obsidian:duplicate-lines-down": [
    {
      "modifiers": [
        "Alt",
        "Shift"
      ],
      "key": "ArrowDown"
    }
  ],
  "obsidian-hotkeys-for-templates:ColorString.md": [
    {
      "modifiers": [
        "Alt"
      ],
      "key": "S"
    }
  ],
  "templater-obsidian:400-歸檔/401-模板/ColorString.md": [
    {
      "modifiers": [
        "Alt"
      ],
      "key": "S"
    }
  ],
  "templater-obsidian:400-歸檔/401-模板/Highlight.md": [
    {
      "modifiers": [
        "Alt"
      ],
      "key": "L"
    }
  ],
  "switcher:open": [
    {
      "modifiers": [
        "Mod"
      ],
      "key": "P"
    }
  ],
  "obsidian-markmind:Toggle to markdown or mindmap": [
    {
      "modifiers": [
        "Mod",
        "Shift"
      ],
      "key": "V"
    }
  ],
  "obsidian-excalidraw-plugin:toggle-excalidraw-view": [
    {
      "modifiers": [
        "Mod",
        "Shift"
      ],
      "key": "V"
    }
  ],
  "obsidian-markmind:Export to html": [
    {
      "modifiers": [
        "Mod",
        "Shift"
      ],
      "key": "O"
    }
  ]
}